[
{
  "model": "orders.orderdetail",
  "pk": 4,
  "fields": {
    "product": 1,
    "order": 1,
    "quantity": 1,
    "price": "0.00",
    "discount_price": "0.00",
    "final_price": "0.00",
    "total_price": "0.00"
  }
},
{
  "model": "orders.orderdetail",
  "pk": 5,
  "fields": {
    "product": 1,
    "order": 1,
    "quantity": 2,
    "price": "1000000.00",
    "discount_price": "0.00",
    "final_price": "1000000.00",
    "total_price": "2000000.00"
  }
},
{
  "model": "orders.orderdetail",
  "pk": 6,
  "fields": {
    "product": 2,
    "order": 2,
    "quantity": 1,
    "price": "650000.00",
    "discount_price": "0.00",
    "final_price": "650000.00",
    "total_price": "650000.00"
  }
},
{
  "model": "orders.orderdetail",
  "pk": 7,
  "fields": {
    "product": 8,
    "order": 2,
    "quantity": 1,
    "price": "100000.00",
    "discount_price": "0.00",
    "final_price": "100000.00",
    "total_price": "100000.00"
  }
},
{
  "model": "orders.orderdetail",
  "pk": 8,
  "fields": {
    "product": 15,
    "order": 3,
    "quantity": 1,
    "price": "250000.00",
    "discount_price": "0.00",
    "final_price": "250000.00",
    "total_price": "250000.00"
  }
},
{
  "model": "orders.orderdetail",
  "pk": 9,
  "fields": {
    "product": 15,
    "order": 2,
    "quantity": 1,
    "price": "100000.00",
    "discount_price": "0.00",
    "final_price": "100000.00",
    "total_price": "100000.00"
  }
}
]
