[
{
    "model": "accounts.user",
    "pk": 1,
    "fields": {
        "password": "pbkdf2_sha256$216000$kPRsuYpBrHyF$0GeowNwk6zR+16HT+NrMMIhDfVthS+MSHunyCXwaqbI=",
        "last_login": "2021-04-04T20:49:14.645Z",
        "is_superuser": true,
        "first_name": "",
        "last_name": "",
        "is_staff": true,
        "is_active": true,
        "date_joined": "2021-04-04T18:19:30.798Z",
        "gender": "no_specify",
        "address": null,
        "phone": null,
        "document_number": null,
        "type_document": "no_specify",
        "email": "admin@admin.com",
        "avatar": "",
        "groups": [],
        "user_permissions": []
    }
},
{
    "model": "accounts.user",
    "pk": 2,
    "fields": {
        "password": "pbkdf2_sha256$216000$0LKRjz2tsgSD$TGQw0hPfr8JDTI2d43xJcfLmsQ/vxGxUBT0ilWEPhY0=",
        "last_login": "2021-04-06T04:17:58.289Z",
        "is_superuser": false,
        "first_name": "Test",
        "last_name": "Testing",
        "is_staff": false,
        "is_active": true,
        "date_joined": "2021-04-04T20:18:33Z",
        "gender": "men",
        "address": null,
        "phone": null,
        "document_number": null,
        "type_document": "no_specify",
        "email": "test@test.com",
        "avatar": "",
        "groups": [],
        "user_permissions": []
    }
}
]
